{
  "$schema": "http://json.schemastore.org/launchsettings.json",
  "iisSettings": {
    "windowsAuthentication": false,
    "anonymousAuthentication": true,
    "iisExpress": {
      "applicationUrl": "http://localhost:19020",
      "sslPort": 44352
    }
  },
  "profiles": {
    "IIS Express": {
      "commandName": "IISExpress",
      "launchUrl": "discussion/last",
      "environmentVariables": {
        "ASPNETCORE_ENVIRONMENT": "Development"
      }
    },
    "Holywar.Api": {
      "commandName": "Project",
      "launchBrowser": true,
      "applicationUrl": "https://localhost:6001;http://localhost:6000",
      "environmentVariables": {
        "ASPNETCORE_ENVIRONMENT": "Development"
      }
    }
  }
}